637 719 909 218 616 527.00,Sign In,Application Start,,,,,,
637 719 909 234 479 258.00,Sign In,Filled Name,Username,Dwa,,,,
637 719 909 244 340 494.00,Sign In,Filled Password,Password,adwad,,,,
637 719 909 245 001 091.00,Sign In,Press button: Sign In,,,,,,
637 719 909 254 051 267.00,Menu,Press button: Pain Diary,,,,,,
637 719 909 259 876 502.00,Pain Diary,Swipe from page 1 to 2,,,,,,
637 719 909 278 967 367.00,Experience diary,,Question 1: Please describe what your pain felt like.,wdadawd,,,,
637 719 909 301 905 552.00,Experience diary,,Question 2: Please describe any factors which might have influenced what your pain felt like and how strongly you felt it.,awdadawdasd,,,,
637 719 909 348 832 034.00,Experience diary,,Question 3: Did you experience any changess in body perception regarding your painful limb?,sycy<fdsfa,,,,
637 719 909 402 204 595.00,Experience diary,,Question 4: Which factors do you think influences any changesin body perception?,grsgdfg,,,,
637 719 909 416 870 393.00,,Swipe from page 2 to 3,,,,,,
637 719 909 446 682 096.00,Pain Diary,,Question 1: Please describe what your pain felt like today.,esfdsfgx,,,,
637 719 909 478 747 673.00,Pain Diary,,Question 2: Please describe any factors which might have influenced what your pain felt like today and how strongly you felt it.,gsdgdxcxcvxv,,,,
637 719 909 526 147 169.00,Pain Diary,,Question 3: If there is anything else you would like to share, please do so in the box below.,asdewggbbbbbc,,,,
637 719 909 526 867 818.00,,Press button: Menu,,,,,,
637 719 909 545 137 690.00,Menu,Press button: Questionnaires,,,,,,
637 719 909 554 127 082.00,Questionnaires,Press button: Pain,,,,,,
637 719 909 562 796 069.00,Questionnaires - Pain,Swipe from page 1 to 2,,,,,,
637 719 909 596 222 793.00,Pain,Submit rating,Question 2: To which extent is your pain burning?,,,,,
637 719 909 575 639 909.00,,Saved drawing data,,,0.00,1.030811,2.562320,
637 719 909 575 639 909.00,,Saved drawing data,,,1.00,1.095587,2.372622,
637 719 909 575 750 006.00,,Saved drawing data,,,2.00,1.234390,2.012195,
637 719 909 575 850 095.00,,Saved drawing data,,,3.00,1.308419,1.822497,
637 719 909 575 981 456.00,,Saved drawing data,,,4.00,1.456476,1.537949,
637 719 909 576 091 551.00,,Saved drawing data,,,5.00,1.539758,1.462070,
637 719 909 576 191 640.00,,Saved drawing data,,,6.00,1.632294,1.348251,
637 719 909 576 301 739.00,,Saved drawing data,,,7.00,1.808112,1.272372,
637 719 909 576 401 828.00,,Saved drawing data,,,8.00,1.891394,1.291342,
637 719 909 576 511 931.00,,Saved drawing data,,,9.00,1.974676,1.367221,
637 719 909 576 612 017.00,,Saved drawing data,,,10.00,2.076465,1.518980,
637 719 909 576 712 108.00,,Saved drawing data,,,11.00,2.261537,1.898376,
637 719 909 576 812 197.00,,Saved drawing data,,,12.00,2.344819,2.107044,
637 719 909 576 912 293.00,,Saved drawing data,,,13.00,2.400340,2.277773,
637 719 909 577 012 376.00,,Saved drawing data,,,14.00,2.465115,2.505410,
637 719 909 577 122 478.00,,Saved drawing data,,,15.00,2.483622,2.562320,
637 719 909 577 222 566.00,,Saved drawing data,,,16.00,2.502129,2.600260,
637 719 909 577 332 664.00,,Saved drawing data,,,17.00,2.520637,2.619230,
637 719 909 577 432 755.00,,Saved drawing data,,,18.00,2.557651,2.619230,
637 719 909 577 532 844.00,,Saved drawing data,,,19.00,2.576158,2.619230,
637 719 909 577 662 964.00,,Saved drawing data,,,20.00,2.640933,2.619230,
637 719 909 577 763 053.00,,Saved drawing data,,,21.00,2.687201,2.581290,
637 719 909 577 873 154.00,,Saved drawing data,,,22.00,2.751976,2.524380,
637 719 909 577 963 238.00,,Saved drawing data,,,23.00,2.835258,2.372622,
637 719 909 578 073 331.00,,Saved drawing data,,,24.00,2.946301,2.182924,
637 719 909 578 173 433.00,,Saved drawing data,,,25.00,3.011076,2.069104,
637 719 909 578 273 510.00,,Saved drawing data,,,26.00,3.066597,1.955286,
637 719 909 578 383 611.00,,Saved drawing data,,,27.00,3.159133,1.670738,
637 719 909 578 493 712.00,,Saved drawing data,,,28.00,3.214654,1.537949,
637 719 909 578 593 801.00,,Saved drawing data,,,29.00,3.242415,1.462070,
637 719 909 578 693 890.00,,Saved drawing data,,,30.00,3.270176,1.386191,
637 719 909 607 225 737.00,Questionnaires - Pain,Swipe from page 2 to 1,,,,,,
637 719 909 613 821 666.00,Questionnaires - Pain,Swipe from page 1 to 2,,,,,,
637 719 909 619 566 463.00,Questionnaires - Pain,Swipe from page 2 to 3,,,,,,
637 719 909 626 504 726.00,Questionnaires - Pain,Swipe from page 3 to 4,,,,,,
637 719 909 633 011 699.00,Questionnaires - Pain,Swipe from page 4 to 3,,,,,,
637 719 909 662 868 542.00,Pain,Submit rating,Question 3: To which extent is your pain stabbing?,,,,,
637 719 909 653 279 924.00,,Saved drawing data,,,0.00,0.947529,2.088075,
637 719 909 653 279 924.00,,Saved drawing data,,,1.00,1.049319,1.936316,
637 719 909 653 390 021.00,,Saved drawing data,,,2.00,1.160362,1.841467,
637 719 909 653 490 111.00,,Saved drawing data,,,3.00,1.262151,1.727648,
637 719 909 653 600 211.00,,Saved drawing data,,,4.00,1.484237,1.500010,
637 719 909 653 730 325.00,,Saved drawing data,,,5.00,1.576773,1.443100,
637 719 909 653 830 418.00,,Saved drawing data,,,6.00,1.761844,1.405161,
637 719 909 653 930 507.00,,Saved drawing data,,,7.00,1.826619,1.424130,
637 719 909 654 040 608.00,,Saved drawing data,,,8.00,1.919154,1.518980,
637 719 909 654 140 696.00,,Saved drawing data,,,9.00,2.104226,1.822497,
637 719 909 654 250 796.00,,Saved drawing data,,,10.00,2.187508,2.012195,
637 719 909 654 350 887.00,,Saved drawing data,,,11.00,2.270790,2.258803,
637 719 909 654 460 990.00,,Saved drawing data,,,12.00,2.381833,2.543350,
637 719 909 654 561 073.00,,Saved drawing data,,,13.00,2.409594,2.581290,
637 719 909 654 671 175.00,,Saved drawing data,,,14.00,2.455862,2.619230,
637 719 909 654 771 260.00,,Saved drawing data,,,15.00,2.465115,2.619230,
637 719 909 654 871 358.00,,Saved drawing data,,,16.00,2.529890,2.619230,
637 719 909 654 971 444.00,,Saved drawing data,,,17.00,2.576158,2.600260,
637 719 909 655 071 534.00,,Saved drawing data,,,18.00,2.631679,2.524380,
637 719 909 655 181 632.00,,Saved drawing data,,,19.00,2.733469,2.334682,
637 719 909 655 281 720.00,,Saved drawing data,,,20.00,2.779737,2.182924,
637 719 909 655 411 839.00,,Saved drawing data,,,21.00,2.844512,2.012195,
637 719 909 671 642 756.00,Questionnaires - Pain,Swipe from page 3 to 2,,,,,,
637 719 909 676 708 385.00,Questionnaires - Pain,Swipe from page 2 to 1,,,,,,
637 719 909 693 541 391.00,Pain,Submit rating,Question 1: How strong was your pain?,,,,,
637 719 909 686 587 269.00,,Saved drawing data,,,0.00,0.762458,1.348251,
637 719 909 686 587 269.00,,Saved drawing data,,,1.00,0.836486,1.386191,
637 719 909 686 697 369.00,,Saved drawing data,,,2.00,0.929022,1.481040,
637 719 909 686 797 456.00,,Saved drawing data,,,3.00,1.077079,1.651768,
637 719 909 686 897 547.00,,Saved drawing data,,,4.00,1.141854,1.727648,
637 719 909 687 027 664.00,,Saved drawing data,,,5.00,1.289912,1.955286,
637 719 909 687 137 765.00,,Saved drawing data,,,6.00,1.363940,2.069104,
637 719 909 687 237 854.00,,Saved drawing data,,,7.00,1.456476,2.144984,
637 719 909 687 337 940.00,,Saved drawing data,,,8.00,1.623040,2.277773,
637 719 909 687 438 031.00,,Saved drawing data,,,9.00,1.724829,2.353652,
637 719 909 687 548 132.00,,Saved drawing data,,,10.00,1.817365,2.391592,
637 719 909 687 648 222.00,,Saved drawing data,,,11.00,1.919154,2.410561,
637 719 909 687 748 318.00,,Saved drawing data,,,12.00,2.094972,2.410561,
637 719 909 687 848 401.00,,Saved drawing data,,,13.00,2.187508,2.410561,
637 719 909 687 948 491.00,,Saved drawing data,,,14.00,2.298551,2.410561,
637 719 909 688 048 579.00,,Saved drawing data,,,15.00,2.400340,2.315713,
637 719 909 688 158 691.00,,Saved drawing data,,,16.00,2.640933,2.031165,
637 719 909 688 258 768.00,,Saved drawing data,,,17.00,2.742722,1.879406,
637 719 909 688 358 861.00,,Saved drawing data,,,18.00,2.853765,1.651768,
637 719 909 688 468 961.00,,Saved drawing data,,,19.00,3.112865,1.177523,
637 719 909 688 569 051.00,,Saved drawing data,,,20.00,3.233161,0.892975,
637 719 909 688 699 165.00,,Saved drawing data,,,21.00,3.436740,0.551518,
637 719 909 688 799 259.00,,Saved drawing data,,,22.00,3.557036,0.361820,
637 719 909 688 909 356.00,,Saved drawing data,,,23.00,3.649572,0.285941,
637 719 909 689 009 447.00,,Saved drawing data,,,24.00,3.751362,0.172122,
637 719 909 689 109 535.00,,Saved drawing data,,,25.00,3.917926,0.058303,
637 719 909 702 525 752.00,Questionnaires - Pain,Swipe from page 1 to 2,,,,,,
637 719 909 763 227 314.00,Questionnaires - Pain,Press button: Attention,,,,,,
637 719 909 777 388 751.00,Questionnaires - Attention,Press button: Body Perception,,,,,,
637 719 909 791 052 177.00,Questionnaires - Body Perception,Press button: Emotion,,,,,,
637 719 909 813 687 704.00,Questionnaires - Emotion,Press button: Menu,,,,,,
637 719 909 822 653 023.00,Menu,Press button: Experiments,,,,,,
637 719 909 831 335 555.00,Attention task,Play video instruction,,,,,,
637 719 909 843 237 593.00,Attention task,Press button: Menu,,,,,,
637 719 909 864 135 361.00,Menu,Press button: Log out,,,,,,
637 719 909 870 220 770.00,Sign In,Application Quit,,,,,,
637 737 904 099 246 899.00,Sign In,Application Start,,,,,,
637 737 904 120 729 375.00,Sign In,Press button: Sign In,,,,,,
637 737 904 133 803 761.00,Menu,Press button: Experiments,,,,,,
637 737 904 147 680 666.00,Attention task,Swipe from page 1 to 2,,,,,,
637 737 904 158 141 545.00,Attention task,Swipe from page 2 to 1,,,,,,
637 737 904 172 986 554.00,Attention task,Swipe from page 1 to 2,,,,,,
637 737 904 329 280 543.00,Attention task,Application Quit,,,,,,
637 737 919 936 420 677.00,Sign In,Application Start,,,,,,
637 737 919 957 192 655.00,Sign In,Press button: Sign In,,,,,,
637 737 919 967 923 432.00,Menu,Press button: Experiments,,,,,,
637 737 919 981 769 107.00,Attention task,Play video instruction,,,,,,
637 737 920 025 701 795.00,Attention task,Play video instruction,,,,,,
637 737 920 076 335 950.00,Attention task,Application Quit,,,,,,
637 737 920 254 021 226.00,Sign In,Application Start,,,,,,
637 737 920 260 082 848.00,Sign In,Press button: Sign In,,,,,,
637 737 920 268 407 681.00,Menu,Press button: Experiments,,,,,,
637 737 920 276 915 778.00,Attention task,Play video instruction,,,,,,
637 737 920 297 594 334.00,Attention task,Play video instruction,,,,,,
637 737 920 299 254 268.00,Attention task,Play video instruction,,,,,,
637 737 920 300 745 610.00,Attention task,Play video instruction,,,,,,
637 737 920 302 064 773.00,Attention task,Play video instruction,,,,,,
637 737 920 326 041 535.00,Attention task,Swipe from page 1 to 2,,,,,,
637 737 920 337 005 039.00,Attention task,Play experiment video,,,,,,
637 737 920 344 782 038.00,Attention task,Jump to section 1 of experiment video,,,,,,
637 737 920 347 834 786.00,Attention task,Jump to section 2 of experiment video,,,,,,
637 737 920 350 938 708.00,Attention task,Jump to section 3 of experiment video,,,,,,
637 737 920 354 521 934.00,Attention task,Jump to section 4 of experiment video,,,,,,
637 737 920 363 971 609.00,Attention task,Application Quit,,,,,,
637 737 920 862 463 278.00,Sign In,Application Start,,,,,,
637 737 920 868 348 970.00,Sign In,Press button: Sign In,,,,,,
637 737 920 876 166 007.00,Menu,Press button: Experiments,,,,,,
637 737 920 881 081 519.00,Attention task,Play video instruction,,,,,,
637 737 920 893 615 007.00,Attention task,Swipe from page 1 to 2,,,,,,
637 737 920 903 854 222.00,Attention task,Play experiment video,,,,,,
637 737 920 905 535 735.00,Attention task,Play experiment video,,,,,,
637 737 920 907 057 108.00,Attention task,Play experiment video,,,,,,
637 737 920 917 544 019.00,Attention task,Application Quit,,,,,,
637 737 922 425 788 862.00,Sign In,Application Start,,,,,,
637 737 922 443 011 023.00,Sign In,Press button: Sign In,,,,,,
637 737 922 449 548 027.00,Menu,Press button: Experiments,,,,,,
637 737 922 455 034 922.00,Attention task,Play video instruction,,,,,,
637 737 922 467 732 201.00,Attention task,Play video instruction,,,,,,
637 737 922 469 230 925.00,Attention task,Play video instruction,,,,,,
637 737 922 486 187 886.00,Attention task,Application Quit,,,,,,
637 737 922 653 034 258.00,Sign In,Application Start,,,,,,
637 737 922 658 610 438.00,Sign In,Press button: Sign In,,,,,,
637 737 922 664 290 587.00,Menu,Press button: Experiments,,,,,,
637 737 922 667 904 950.00,Attention task,Play video instruction,,,,,,
637 737 922 707 058 808.00,Attention task,Application Quit,,,,,,
637 738 642 067 598 129.00,Sign In,Application Start,,,,,,
637 738 642 076 227 753.00,Sign In,Press button: Sign In,,,,,,
637 738 642 084 718 917.00,Menu,Press button: Experiments,,,,,,
637 738 642 090 066 276.00,Attention task,Play video instruction,,,,,,
637 738 642 099 244 611.00,Attention task,Play video instruction,,,,,,
637 738 642 100 787 314.00,Attention task,Play video instruction,,,,,,
637 738 642 102 398 774.00,Attention task,Play video instruction,,,,,,
637 738 642 103 900 143.00,Attention task,Play video instruction,,,,,,
637 738 642 117 779 273.00,Attention task,Application Quit,,,,,,
637 740 392 546 150 026.00,Sign In,Application Start,,,,,,
637 740 392 566 087 294.00,Sign In,Press button: Sign In,,,,,,
637 740 392 578 604 842.00,Menu,Press button: Questionnaires,,,,,,
637 740 392 588 987 983.00,Questionnaires,Press button: Pain,,,,,,
637 740 392 605 699 874.00,Questionnaires - Pain,Swipe from page 1 to 2,,,,,,
637 740 392 623 379 916.00,Questionnaires - Pain,Swipe from page 2 to 3,,,,,,
637 740 392 640 279 794.00,Questionnaires - Pain,Swipe from page 3 to 4,,,,,,
637 740 392 648 899 145.00,Questionnaires - Pain,Swipe from page 4 to 5,,,,,,
637 740 392 661 119 621.00,Questionnaires - Pain,Swipe from page 5 to 6,,,,,,
637 740 392 710 099 111.00,Questionnaires - Pain,Press button: Pain,,,,,,
637 740 392 743 109 264.00,Questionnaires - Pain,Application Quit,,,,,,
637 740 414 433 587 970.00,Sign In,Application Start,,,,,,
637 740 414 444 412 569.00,Sign In,Press button: Sign In,,,,,,
637 740 414 452 004 366.00,Menu,Press button: Pain Diary,,,,,,
637 740 414 462 696 430.00,Pain Diary,Press button: Menu,,,,,,
637 740 414 469 722 824.00,Menu,Press button: Questionnaires,,,,,,
637 740 414 476 710 276.00,Questionnaires,Press button: Pain,,,,,,
637 740 414 486 450 447.00,Questionnaires - Pain,Swipe from page 1 to 2,,,,,,
637 740 414 499 472 290.00,Questionnaires - Pain,Swipe from page 2 to 3,,,,,,
637 740 414 512 366 235.00,Questionnaires - Pain,Swipe from page 3 to 4,,,,,,
637 740 414 517 721 443.00,Questionnaires - Pain,Swipe from page 4 to 5,,,,,,
637 740 414 529 024 709.00,Questionnaires - Pain,Swipe from page 5 to 6,,,,,,
637 740 414 563 362 150.00,Questionnaires - Pain,Application Quit,,,,,,
637 740 416 693 841 953.00,Sign In,Application Start,,,,,,
637 740 416 711 739 004.00,,Application Quit,,,,,,
637 740 416 886 308 719.00,Sign In,Application Start,,,,,,
637 740 416 909 820 878.00,,Application Quit,,,,,,
637 740 417 064 763 458.00,Sign In,Application Start,,,,,,
637 740 417 073 593 671.00,Sign In,Press button: Sign In,,,,,,
637 740 417 088 739 588.00,Menu,Press button: Questionnaires,,,,,,
637 740 417 098 328 227.00,Questionnaires,Press button: Pain,,,,,,
637 740 417 112 377 746.00,Questionnaires - Pain,Swipe from page 1 to 2,,,,,,
637 740 417 170 576 714.00,Questionnaires - Pain,Swipe from page 2 to 3,,,,,,
637 740 417 205 222 057.00,Questionnaires - Pain,Swipe from page 3 to 4,,,,,,
637 740 417 213 349 593.00,Questionnaires - Pain,Swipe from page 4 to 5,,,,,,
637 740 417 220 646 156.00,Questionnaires - Pain,Swipe from page 5 to 6,,,,,,
637 740 417 260 704 391.00,Questionnaires - Pain,Application Quit,,,,,,
637 740 418 076 264 133.00,Sign In,Application Start,,,,,,
637 740 418 092 733 173.00,Sign In,Press button: Sign In,,,,,,
637 740 418 101 212 367.00,Menu,Press button: Questionnaires,,,,,,
637 740 418 109 599 918.00,Questionnaires,Press button: Pain,,,,,,
637 740 418 120 500 774.00,Questionnaires - Pain,Swipe from page 1 to 2,,,,,,
637 740 418 139 455 961.00,Questionnaires - Pain,Swipe from page 2 to 3,,,,,,
637 740 418 151 254 260.00,Questionnaires - Pain,Swipe from page 3 to 4,,,,,,
637 740 418 163 109 499.00,Questionnaires - Pain,Swipe from page 4 to 5,,,,,,
637 740 418 173 607 734.00,Questionnaires - Pain,Swipe from page 5 to 6,,,,,,
637 740 418 205 377 392.00,Questionnaires - Pain,Application Quit,,,,,,
637 740 423 500 085 927.00,Sign In,Application Start,,,,,,
637 740 423 513 284 645.00,Sign In,Press button: Sign In,,,,,,
637 740 423 522 482 979.00,Menu,Press button: Pain Diary,,,,,,
637 740 423 535 927 463.00,Pain Diary,Press button: Menu,,,,,,
637 740 423 542 349 479.00,Menu,Press button: Pain Diary,,,,,,
637 740 423 552 009 362.00,Pain Diary,Press button: Menu,,,,,,
637 740 423 557 374 225.00,Menu,Press button: Questionnaires,,,,,,
637 740 423 566 113 230.00,Questionnaires,Press button: Pain,,,,,,
637 740 423 571 518 133.00,Questionnaires - Pain,Swipe from page 1 to 2,,,,,,
637 740 423 599 809 990.00,Questionnaires - Pain,Swipe from page 2 to 3,,,,,,
637 740 423 617 393 285.00,Questionnaires - Pain,Swipe from page 3 to 4,,,,,,
637 740 423 630 496 283.00,Questionnaires - Pain,Swipe from page 4 to 5,,,,,,
637 740 423 644 570 100.00,Questionnaires - Pain,Swipe from page 5 to 6,,,,,,
637 740 423 672 767 825.00,Questionnaires - Pain,Swipe from page 6 to 5,,,,,,
637 740 423 677 239 220.00,Questionnaires - Pain,Swipe from page 5 to 4,,,,,,
637 740 423 681 808 432.00,Questionnaires - Pain,Swipe from page 4 to 3,,,,,,
637 740 423 686 702 911.00,Questionnaires - Pain,Swipe from page 3 to 2,,,,,,
637 740 423 696 126 483.00,Questionnaires - Pain,Swipe from page 2 to 1,,,,,,
637 740 423 710 291 535.00,Questionnaires - Pain,Swipe from page 1 to 2,,,,,,
637 740 423 738 730 921.00,Questionnaires - Pain,Application Quit,,,,,,
637 740 432 937 644 434.00,Sign In,Application Start,,,,,,
637 740 433 237 227 014.00,Sign In,Application Start,,,,,,
637 740 433 266 471 588.00,,Application Quit,,,,,,
637 740 433 770 383 442.00,Sign In,Application Start,,,,,,
637 740 433 951 438 007.00,,Application Quit,,,,,,
637 740 434 355 763 093.00,Sign In,Application Start,,,,,,
637 740 434 399 324 307.00,,Application Quit,,,,,,
637 740 434 623 645 123.00,Sign In,Application Start,,,,,,
637 740 434 658 546 932.00,,Application Quit,,,,,,
637 740 487 527 699 242.00,Sign In,Application Start,,,,,,
637 740 487 548 559 819.00,,Application Quit,,,,,,
637 740 617 202 300 567.00,Sign In,Application Start,,,,,,
637 740 617 253 398 677.00,,Press button: Pain,,,,,,
637 740 617 261 862 043.00,Questionnaires - Pain,Swipe from page 1 to 2,,,,,,
637 740 617 267 958 801.00,Questionnaires - Pain,Swipe from page 2 to 3,,,,,,
637 740 617 274 124 389.00,Questionnaires - Pain,Swipe from page 3 to 4,,,,,,
637 740 617 280 395 296.00,Questionnaires - Pain,Swipe from page 4 to 5,,,,,,
637 740 617 286 470 800.00,Questionnaires - Pain,Swipe from page 5 to 6,,,,,,
637 740 617 294 199 172.00,Questionnaires - Pain,Swipe from page 6 to 5,,,,,,
637 740 617 299 555 099.00,Questionnaires - Pain,Swipe from page 5 to 4,,,,,,
637 740 617 306 671 541.00,Questionnaires - Pain,Swipe from page 4 to 3,,,,,,
637 740 617 312 191 719.00,Questionnaires - Pain,Swipe from page 3 to 2,,,,,,
637 740 617 344 067 724.00,Questionnaires - Pain,Swipe from page 2 to 3,,,,,,
637 740 617 357 149 615.00,Questionnaires - Pain,Swipe from page 3 to 4,,,,,,
637 740 617 380 497 286.00,Questionnaires - Pain,Swipe from page 4 to 5,,,,,,
637 740 617 388 001 432.00,Questionnaires - Pain,Swipe from page 5 to 6,,,,,,
637 740 617 443 522 968.00,Questionnaires - Pain,Swipe from page 6 to 5,,,,,,
637 740 617 479 617 915.00,Questionnaires - Pain,Swipe from page 5 to 6,,,,,,
637 740 617 488 458 554.00,Questionnaires - Pain,Swipe from page 6 to 5,,,,,,
637 740 617 505 355 056.00,Questionnaires - Pain,Swipe from page 5 to 4,,,,,,
637 740 617 522 724 256.00,Questionnaires - Pain,Application Quit,,,,,,
637 740 618 122 178 017.00,Sign In,Application Start,,,,,,
637 740 618 146 828 355.00,,Press button: Pain,,,,,,
637 740 618 694 661 395.00,Questionnaires - Pain,Application Quit,,,,,,
637 740 623 133 194 071.00,Sign In,Application Start,,,,,,
637 740 623 142 336 222.00,,Swipe from page 1 to 2,,,,,,
637 740 623 148 651 969.00,,Swipe from page 2 to 3,,,,,,
637 740 623 154 558 555.00,,Swipe from page 3 to 4,,,,,,
637 740 623 183 620 500.00,,Press button: Pain,,,,,,
637 740 623 189 265 621.00,Questionnaires - Pain,Swipe from page 1 to 2,,,,,,
637 740 623 195 302 626.00,Questionnaires - Pain,Swipe from page 2 to 3,,,,,,
637 740 623 200 438 619.00,Questionnaires - Pain,Swipe from page 3 to 4,,,,,,
637 740 623 206 805 607.00,Questionnaires - Pain,Swipe from page 4 to 5,,,,,,
637 740 623 212 749 677.00,Questionnaires - Pain,Swipe from page 5 to 6,,,,,,
637 740 623 239 478 400.00,Questionnaires - Pain,Application Quit,,,,,,
637 740 623 860 633 501.00,Sign In,Application Start,,,,,,
637 740 623 878 320 519.00,,Press button: Pain,,,,,,
637 740 623 885 761 136.00,Questionnaires - Pain,Swipe from page 1 to 2,,,,,,
637 740 623 923 793 659.00,Questionnaires - Pain,Press button: Pain,,,,,,
637 740 624 033 104 280.00,Questionnaires - Pain,Swipe from page 1 to 2,,,,,,
637 740 624 102 772 607.00,Questionnaires - Pain,Application Quit,,,,,,
637 740 633 794 982 338.00,,Application Quit,,,,,,
637 740 634 160 539 794.00,Sign In,Application Start,,,,,,
637 740 634 195 345 363.00,,Press button: Pain,,,,,,
637 740 634 220 942 728.00,Questionnaires - Pain,Swipe from page 1 to 2,,,,,,
637 740 634 385 988 347.00,Questionnaires - Pain,Application Quit,,,,,,
637 740 634 492 951 620.00,Sign In,Application Start,,,,,,
637 740 634 507 804 821.00,,Swipe from page 1 to 2,,,,,,
637 740 634 518 912 428.00,,Swipe from page 2 to 3,,,,,,
637 740 634 527 261 201.00,,Swipe from page 3 to 4,,,,,,
637 740 634 541 316 292.00,,Swipe from page 4 to 5,,,,,,
637 740 634 557 479 993.00,,Swipe from page 5 to 6,,,,,,
637 740 634 572 584 783.00,,Swipe from page 6 to 5,,,,,,
637 740 634 600 174 375.00,,Swipe from page 5 to 4,,,,,,
637 740 634 615 190 303.00,,Swipe from page 4 to 3,,,,,,
637 740 634 624 173 001.00,,Swipe from page 3 to 4,,,,,,
637 740 634 643 710 267.00,,Application Quit,,,,,,
637 740 640 983 924 861.00,Sign In,Application Start,,,,,,
637 740 641 004 949 878.00,,Press button: Pain,,,,,,
637 740 641 331 416 391.00,Questionnaires - Pain,Application Quit,,,,,,
637 740 642 870 713 853.00,Sign In,Application Start,,,,,,
637 740 642 893 829 064.00,,Press button: Attention,,,,,,
637 740 642 911 814 383.00,Questionnaires - Attention,Press button: Pain,,,,,,
637 740 643 011 254 457.00,Questionnaires - Pain,Application Quit,,,,,,
637 740 654 969 455 813.00,Sign In,Application Start,,,,,,
637 740 654 993 009 533.00,,Press button: Pain,,,,,,
637 740 655 007 183 494.00,Questionnaires - Pain,Swipe from page 1 to 2,,,,,,
637 740 655 025 020 895.00,Questionnaires - Pain,Swipe from page 2 to 1,,,,,,
637 740 655 037 436 163.00,Questionnaires - Pain,Swipe from page 1 to 2,,,,,,
637 740 655 050 454 312.00,Questionnaires - Pain,Swipe from page 2 to 1,,,,,,
637 740 655 065 860 599.00,Questionnaires - Pain,Swipe from page 1 to 2,,,,,,
637 740 655 074 891 539.00,Questionnaires - Pain,Swipe from page 2 to 1,,,,,,
637 740 655 113 415 558.00,Questionnaires - Pain,Press button: Body Perception,,,,,,
637 740 655 120 365 974.00,Questionnaires - Body Perception,Swipe from page 1 to 2,,,,,,
637 740 655 145 287 423.00,Questionnaires - Body Perception,Swipe from page 2 to 3,,,,,,
637 740 655 156 563 420.00,Questionnaires - Body Perception,Swipe from page 3 to 4,,,,,,
637 740 655 162 864 265.00,Questionnaires - Body Perception,Swipe from page 4 to 5,,,,,,
637 740 655 178 634 973.00,Questionnaires - Body Perception,Swipe from page 5 to 6,,,,,,
637 740 655 191 471 623.00,Questionnaires - Body Perception,Swipe from page 6 to 5,,,,,,
637 740 655 247 842 596.00,Questionnaires - Body Perception,Application Quit,,,,,,
637 740 655 275 446 975.00,Sign In,Application Start,,,,,,
637 740 655 294 491 899.00,,Swipe from page 1 to 2,,,,,,
637 740 655 303 196 092.00,,Swipe from page 2 to 3,,,,,,
637 740 655 331 736 909.00,,Press button: Body Perception,,,,,,
637 740 655 340 075 747.00,Questionnaires - Body Perception,Swipe from page 1 to 2,,,,,,
637 740 655 347 062 177.00,Questionnaires - Body Perception,Swipe from page 2 to 3,,,,,,
637 740 655 388 795 699.00,Questionnaires - Body Perception,Press button: Pain,,,,,,
637 740 655 394 951 873.00,Questionnaires - Pain,Swipe from page 1 to 2,,,,,,
637 740 655 406 554 861.00,Questionnaires - Pain,Swipe from page 2 to 1,,,,,,
637 740 655 432 537 368.00,Questionnaires - Pain,Press button: Body Perception,,,,,,
637 740 655 503 773 694.00,Questionnaires - Body Perception,Swipe from page 1 to 2,,,,,,
637 740 655 515 235 423.00,Questionnaires - Body Perception,Swipe from page 2 to 3,,,,,,
637 740 655 630 602 268.00,Questionnaires - Body Perception,Application Quit,,,,,,
637 740 656 056 364 050.00,Sign In,Application Start,,,,,,
637 740 656 069 016 146.00,,Press button: Menu,,,,,,
637 740 656 077 065 182.00,Menu,Press button: Settings,,,,,,
637 740 656 083 876 707.00,Settings,Press button: Reset,,,,,,
637 740 656 084 737 484.00,Sign In,Application Start,,,,,,
637 740 656 139 749 087.00,,Press button: Pain,,,,,,
637 740 656 146 002 075.00,Questionnaires - Pain,Swipe from page 1 to 2,,,,,,
637 740 656 152 408 009.00,Questionnaires - Pain,Swipe from page 2 to 3,,,,,,
637 740 656 158 243 167.00,Questionnaires - Pain,Swipe from page 3 to 4,,,,,,
637 740 656 163 272 220.00,Questionnaires - Pain,Swipe from page 4 to 5,,,,,,
637 740 656 169 638 003.00,Questionnaires - Pain,Swipe from page 5 to 6,,,,,,
637 740 656 189 263 886.00,Questionnaires - Pain,Swipe from page 6 to 5,,,,,,
637 740 656 202 417 063.00,Questionnaires - Pain,Swipe from page 5 to 4,,,,,,
637 740 656 208 842 901.00,Questionnaires - Pain,Swipe from page 4 to 3,,,,,,
637 740 656 220 547 312.00,Questionnaires - Pain,Swipe from page 3 to 2,,,,,,
637 740 656 227 644 982.00,Questionnaires - Pain,Swipe from page 2 to 1,,,,,,
637 740 656 251 377 607.00,Questionnaires - Pain,Press button: Body Perception,,,,,,
637 740 656 264 745 596.00,Questionnaires - Body Perception,Swipe from page 1 to 2,,,,,,
637 740 656 271 022 460.00,Questionnaires - Body Perception,Swipe from page 2 to 3,,,,,,
637 740 656 282 524 253.00,Questionnaires - Body Perception,Swipe from page 3 to 4,,,,,,
637 740 656 312 258 400.00,Questionnaires - Body Perception,Application Quit,,,,,,
637 740 656 410 330 340.00,Sign In,Application Start,,,,,,
637 740 656 428 794 874.00,Sign In,Press button: Sign In,,,,,,
637 740 656 437 376 383.00,Menu,Press button: Questionnaires,,,,,,
637 740 656 457 102 410.00,Questionnaires,Press button: Menu,,,,,,
637 740 656 471 704 872.00,Menu,Press button: Notifications,,,,,,
637 740 656 479 843 248.00,Notifications,Press button: Menu,,,,,,
637 740 656 490 852 224.00,Menu,Press button: Questionnaires,,,,,,
637 740 656 496 535 075.00,Questionnaires,Press button: Pain,,,,,,
637 740 656 504 161 994.00,Questionnaires - Pain,Swipe from page 1 to 2,,,,,,
637 740 656 512 489 656.00,Questionnaires - Pain,Swipe from page 2 to 3,,,,,,
637 740 656 527 144 037.00,Questionnaires - Pain,Swipe from page 3 to 2,,,,,,
637 740 656 533 589 892.00,Questionnaires - Pain,Swipe from page 2 to 1,,,,,,
637 740 656 556 258 187.00,Questionnaires - Pain,Press button: Body Perception,,,,,,
637 740 656 563 218 395.00,Questionnaires - Body Perception,Swipe from page 1 to 2,,,,,,
637 740 656 570 255 862.00,Questionnaires - Body Perception,Swipe from page 2 to 3,,,,,,
637 740 656 607 419 791.00,Questionnaires - Body Perception,Application Quit,,,,,,
637 740 659 587 639 001.00,Sign In,Application Start,,,,,,
637 740 659 599 638 277.00,Sign In,Press button: Sign In,,,,,,
637 740 659 610 269 187.00,Menu,Press button: Questionnaires,,,,,,
637 740 659 616 575 016.00,Questionnaires,Press button: Pain,,,,,,
637 740 659 627 759 390.00,Questionnaires - Pain,Swipe from page 1 to 2,,,,,,
637 740 659 634 526 685.00,Questionnaires - Pain,Swipe from page 2 to 3,,,,,,
637 740 659 644 718 474.00,Questionnaires - Pain,Swipe from page 3 to 2,,,,,,
637 740 659 650 633 855.00,Questionnaires - Pain,Swipe from page 2 to 1,,,,,,
637 740 659 668 635 844.00,Questionnaires - Pain,Press button: Emotion,,,,,,
637 740 659 678 873 644.00,Questionnaires - Emotion,Swipe from page 1 to 2,,,,,,
637 740 659 685 590 888.00,Questionnaires - Emotion,Swipe from page 2 to 3,,,,,,
637 740 659 691 067 009.00,Questionnaires - Emotion,Swipe from page 3 to 4,,,,,,
637 740 659 701 578 735.00,Questionnaires - Emotion,Swipe from page 4 to 3,,,,,,
637 740 659 717 916 814.00,Questionnaires - Emotion,Press button: Body Perception,,,,,,
637 740 659 764 872 454.00,Questionnaires - Body Perception,Swipe from page 1 to 2,,,,,,
637 740 659 823 059 091.00,Questionnaires - Body Perception,Swipe from page 2 to 3,,,,,,
637 740 659 839 909 423.00,Questionnaires - Body Perception,Swipe from page 3 to 2,,,,,,
637 740 659 859 639 681.00,Questionnaires - Body Perception,Swipe from page 2 to 3,,,,,,
637 740 659 936 865 221.00,Questionnaires - Body Perception,Application Quit,,,,,,
637 740 660 474 492 802.00,Sign In,Application Start,,,,,,
637 740 660 500 459 458.00,Sign In,Press button: Sign In,,,,,,
637 740 660 514 365 393.00,Menu,Press button: Questionnaires,,,,,,
637 740 660 536 224 159.00,Questionnaires,Press button: Body Perception,,,,,,
637 740 660 548 651 528.00,Questionnaires - Body Perception,Swipe from page 1 to 2,,,,,,
637 740 660 555 898 106.00,Questionnaires - Body Perception,Swipe from page 2 to 3,,,,,,
637 740 660 612 005 407.00,Questionnaires - Body Perception,Press button: Pain,,,,,,
637 740 660 621 755 415.00,Questionnaires - Pain,Swipe from page 1 to 2,,,,,,
637 740 660 628 792 908.00,Questionnaires - Pain,Swipe from page 2 to 3,,,,,,
637 740 660 646 865 887.00,Questionnaires - Pain,Swipe from page 3 to 2,,,,,,
637 740 660 653 366 801.00,Questionnaires - Pain,Swipe from page 2 to 3,,,,,,
637 740 660 661 132 507.00,Questionnaires - Pain,Swipe from page 3 to 2,,,,,,
637 740 660 666 469 150.00,Questionnaires - Pain,Swipe from page 2 to 1,,,,,,
637 740 660 696 003 819.00,Questionnaires - Pain,Application Quit,,,,,,
637 740 664 749 138 268.00,Sign In,Application Start,,,,,,
637 740 664 761 000 375.00,Sign In,Press button: Sign In,,,,,,
637 740 664 770 466 676.00,Menu,Press button: Experiments,,,,,,
637 740 664 779 670 833.00,Attention task,Press button: Menu,,,,,,
637 740 664 786 038 722.00,Menu,Press button: Experiments,,,,,,
637 740 664 789 526 052.00,Attention task,Play video instruction,,,,,,
637 740 664 800 433 228.00,Attention task,Swipe from page 1 to 2,,,,,,
637 740 664 806 715 165.00,Attention task,Play experiment video,,,,,,
637 740 664 821 099 482.00,Attention task,Press button: Menu,,,,,,
637 740 664 832 331 976.00,Menu,Press button: Questionnaires,,,,,,
637 740 664 855 318 802.00,Questionnaires,Press button: Body Perception,,,,,,
637 740 664 866 700 123.00,Questionnaires - Body Perception,Swipe from page 1 to 2,,,,,,
637 740 665 425 673 733.00,Questionnaires - Body Perception,Press button: Menu,,,,,,
637 740 665 434 395 712.00,Menu,Press button: Settings,,,,,,
637 740 665 442 082 785.00,Settings,Press button: Reset,,,,,,
637 740 665 443 013 626.00,Sign In,Application Start,,,,,,
637 740 665 452 257 010.00,Sign In,Press button: Sign In,,,,,,
637 740 665 470 529 958.00,Menu,Press button: Questionnaires,,,,,,
637 740 665 476 862 725.00,Questionnaires,Press button: Body Perception,,,,,,
637 740 665 488 555 411.00,Questionnaires - Body Perception,Swipe from page 1 to 2,,,,,,
637 740 665 512 215 215.00,Questionnaires - Body Perception,Swipe from page 2 to 1,,,,,,
637 740 665 525 349 402.00,Questionnaires - Body Perception,Swipe from page 1 to 2,,,,,,
637 740 665 531 447 156.00,Questionnaires - Body Perception,Swipe from page 2 to 3,,,,,,
637 740 665 549 045 661.00,Questionnaires - Body Perception,Swipe from page 3 to 4,,,,,,
637 740 665 563 308 083.00,Questionnaires - Body Perception,Swipe from page 4 to 5,,,,,,
637 740 665 586 263 890.00,Questionnaires - Body Perception,Swipe from page 5 to 6,,,,,,
637 740 665 608 416 979.00,Questionnaires - Body Perception,Press button: Pain,,,,,,
637 740 665 622 010 590.00,Questionnaires - Pain,Swipe from page 1 to 2,,,,,,
637 740 665 626 608 289.00,Questionnaires - Pain,Swipe from page 2 to 1,,,,,,
637 740 665 635 955 466.00,Questionnaires - Pain,Swipe from page 1 to 2,,,,,,
637 740 665 649 998 090.00,Questionnaires - Pain,Swipe from page 2 to 3,,,,,,
637 740 665 667 042 571.00,Questionnaires - Pain,Swipe from page 3 to 4,,,,,,
637 740 665 702 418 118.00,Questionnaires - Pain,Application Quit,,,,,,
637 740 665 729 678 996.00,Sign In,Application Start,,,,,,
637 740 665 738 691 198.00,Sign In,Press button: Sign In,,,,,,
637 740 665 752 675 473.00,Menu,Press button: Questionnaires,,,,,,
637 740 665 759 323 215.00,Questionnaires,Press button: Body Perception,,,,,,
637 740 665 810 709 168.00,Questionnaires - Body Perception,Swipe from page 1 to 2,,,,,,
637 740 665 940 304 556.00,Questionnaires - Body Perception,Swipe from page 2 to 1,,,,,,
637 740 666 016 007 287.00,Questionnaires - Body Perception,Application Quit,,,,,,
